<nav class="vertical">	
	<ul><li><a href="/index.html#conteudo"><strong><i> << Voltar</i></strong></a></li>
		<li><a href="#">Introdução +</a>
			<ul>
			  <li><a href="/cakephp/">Introdução</a></li>
			  <li><a href="/cakephp/justificativa.html">Justificativa</a></li>                  
			  <li><a href="cakephp/instalacao">Instalacao</a></li>                  
			  <li><a href="cakephp/composer">Composer</a></li>				  
			  <li><a href="cakephp/convencoes">Convenções</a></li>
			  <li><a href="cakephp/configuracoes">Configurações</a></li>                          
			</ul>
		  </li>
		<li><a href="#">Controller +</a>
		    <ul>
		      <li><a href="cakephp/mvc">MVC</a></li>          			    
		      <li><a href="cakephp/controller">Controllers</a></li>                    
		      <li><a href="cakephp/controller">Component</a></li>
		      <li><a href="cakephp/controller">AppController</a></li>                      
		    </ul>
	    </li>
	    <li><a href="#">Model +</a>
		    <ul>
		      <li><a href="cakephp/model">Behavior</a></li>                    
		      <li><a href="cakephp/model">Entity</a></li>
		      <li><a href="cakephp/model">Table</a></li>                      
			</ul>
		</li>
	</ul>
</nav>
<!-- Final do Cabeçalho -->
